02 Understanding Residuals in R
…
The final plot is the Residuals vs Leverage plot which helps to find influential cases, if there are any. The concept of leverage and influence is important here. Leverage is simply a function of the distance between an explanatory variable and the mean of the explanatory variables. This means observations that are far from the mean of the explanatory variables will have high leverage, that is, may be an outlier. However, not all points with high leverage are influential. Observations that may significantly affect the slope of the regression line when removed or added are influential observations. Such observations may combine both leverage and influence.

Unlike in other plots, patterns are not that relevant here. Instead, outlying values in the upper or lower corners matter. This should be important since removing them or including them will affect the results of the regression model. In this case, there is one observation (Chrylser Imperial) located at the top right corner which appears to be an outlier with high influence. This point is beyond the Cooks distance lines and should have significant impact on the regression results. We could observe additional details about this point using augment from the broom package.

broom::augment(mod) %>% select(.rownames, .hat, .cooksd) %>% arrange(desc(.hat))

## # A tibble: 32 x 3
##    .rownames             .hat  .cooksd
##    <chr>                <dbl>    <dbl>
##  1 Lincoln Continental 0.195  0.0719  
##  2 Chrysler Imperial   0.184  0.532   
##  3 Cadillac Fleetwood  0.170  0.0184  
##  4 Lotus Europa        0.129  0.0132  
##  5 Honda Civic         0.118  0.0249  
##  6 Toyota Corolla      0.0956 0.260   
##  7 Fiat X1-9           0.0866 0.000711
##  8 Porsche 914-2       0.0704 0.000101
##  9 Fiat 128            0.0661 0.193   
## 10 Datsun 710          0.0584 0.0154  
## # ... with 22 more rows
…
The plot above shows the four main points which seem to have high leverage. Of these, Chrysler Imperial appears to have the highest influence as we can tell from the Residuals vs Leverage plot. The .cooksd in the augment output combines the two quantities: leverage and influence. The results given below show that Chrysler Imperial has the highest value of .cooksd.

broom::augment(mod) %>% arrange(desc(.cooksd)) %>% select(.rownames, .cooksd)

## # A tibble: 32 x 2
##    .rownames           .cooksd
##    <chr>                 <dbl>
##  1 Chrysler Imperial    0.532 
##  2 Toyota Corolla       0.260 
##  3 Fiat 128             0.193 
##  4 Lincoln Continental  0.0719
##  5 Ford Pantera L       0.0371
##  6 Camaro Z28           0.0313
##  7 Duster 360           0.0313
##  8 Merc 240D            0.0311
##  9 AMC Javelin          0.0263
## 10 Honda Civic          0.0249
## # ... with 22 more rows
…
